{
    "nomServeur": "Test",
    "Role": {
        "villageois": {
            "nb": 0,
            "present": 0,
            "nom": "Villageoi(s)",
            "image": "Villageois.png"
        },
        "loupGarou": {
            "nb": 0,
            "present": 0,
            "nom": "Loup-Garou(s)",
            "image": "Loup-garou.png"
        },
        "sorciere": {
            "nb": 0,
            "present": 0,
            "nom": "Sorcière",
            "image": "Sorciere.png"
        },
        "petiteFille": {
            "nb": 0,
            "present": 0,
            "nom": "Petite-fille",
            "image": "Petite-fille.png"
        },
        "voyante": {
            "nb": 0,
            "present": 0,
            "nom": "Voyante",
            "image": "Voyante.png"
        },
        "chasseur": {
            "nb": 0,
            "present": 0,
            "nom": "Chasseur",
            "image": "Chasseur.png"
        },
        "cupidon": {
            "nb": 0,
            "present": 0,
            "nom": "Cupidon",
            "image": "Cupidon.png"
        },
        "medium": {
            "nb": 0,
            "present": 0,
            "nom": "Médium",
            "image": "Medium.png"
        },
        "autre": {
            "nb": 0,
            "present": 0,
            "nom": "Autre",
            "image": "../verso.png"
        }
    }
}